rtl/sim/control_unit/control_unit_waveform.vcd
$date
  Fri Mar 13 22:58:47 2026
$end
$version
  GHDL v0
$end
$timescale
  1 fs
$end
$scope module standard $end
$upscope $end
$scope module textio $end
$upscope $end
$scope module std_logic_1164 $end
$upscope $end
$scope module numeric_std $end
$upscope $end
$scope module math_real $end
$upscope $end
$scope module std_logic_textio $end
$upscope $end
$scope module cpu_pkg $end
$upscope $end
$scope module memory_pkg $end
$upscope $end
$scope module tb_control_unit $end
$var reg 7 ! opcode[6:0] $end
$var reg 3 " funct3[2:0] $end
$var reg 7 # funct7[6:0] $end
$var reg 32 $ alu_result[31:0] $end
$var reg 1 % alu_use_imm $end
$var reg 1 & write_rd $end
$var reg 1 ' write_mem $end
$var reg 1 ( take_branch $end
$comment rd_data_src is not handled $end
$var reg 1 ) jump $end
$comment aluop is not handled $end
$comment mem_access_width is not handled $end
$var reg 1 * mem_access $end
$scope module uut $end
$var reg 7 + opcode[6:0] $end
$var reg 3 , funct3[2:0] $end
$var reg 7 - funct7[6:0] $end
$var reg 32 . alu_result[31:0] $end
$var reg 1 / alu_use_imm $end
$var reg 1 0 write_rd $end
$var reg 1 1 write_mem $end
$var reg 1 2 take_branch $end
$comment rd_data_src is not handled $end
$var reg 1 3 jump $end
$comment aluop is not handled $end
$comment mem_access_width is not handled $end
$var reg 1 4 mem_access $end
$comment branch is not handled $end
$upscope $end
$upscope $end
$enddefinitions $end
#0
b0110111 !
b000 "
b0000000 #
b00000000000000000000000000000000 $
0%
1&
0'
0(
0)
0*
b0110111 +
b000 ,
b0000000 -
b00000000000000000000000000000000 .
0/
10
01
02
03
04
#10000000
b0010111 !
b0010111 +
#20000000
b1101111 !
1)
b1101111 +
13
#30000000
b1100111 !
1%
b1100111 +
1/
#40000000
b1100011 !
0%
0&
1(
0)
b1100011 +
0/
00
12
03
#50000000
b00000000000000000000000000000001 $
0(
b00000000000000000000000000000001 .
02
#60000000
b001 "
1(
b001 ,
12
#70000000
b00000000000000000000000000000000 $
0(
b00000000000000000000000000000000 .
02
#80000000
b100 "
b00000000000000000000000000000001 $
1(
b100 ,
b00000000000000000000000000000001 .
12
#90000000
b00000000000000000000000000000000 $
0(
b00000000000000000000000000000000 .
02
#100000000
b101 "
1(
b101 ,
12
#110000000
b00000000000000000000000000000001 $
0(
b00000000000000000000000000000001 .
02
#120000000
b0000011 !
b000 "
b00000000000000000000000000000000 $
1%
1&
0(
1*
b0000011 +
b000 ,
b00000000000000000000000000000000 .
1/
10
02
14
#130000000
b001 "
b001 ,
#140000000
b010 "
b010 ,
#150000000
b100 "
b100 ,
#160000000
b101 "
b101 ,
#170000000
b0100011 !
b000 "
0&
1'
b0100011 +
b000 ,
00
11
#180000000
b001 "
b001 ,
#190000000
b010 "
b010 ,
#200000000
b0010011 !
b000 "
1&
0'
0*
b0010011 +
b000 ,
10
01
04
#210000000
b010 "
b010 ,
#220000000
b011 "
b011 ,
#230000000
b111 "
b111 ,
#240000000
b110 "
b110 ,
#250000000
b100 "
b100 ,
#260000000
b001 "
b001 ,
#270000000
b101 "
b101 ,
#280000000
b0100000 #
b0100000 -
#290000000
b0110011 !
b000 "
b0000000 #
0%
b0110011 +
b000 ,
b0000000 -
0/
#300000000
b0100000 #
b0100000 -
#310000000
b010 "
b0000000 #
b010 ,
b0000000 -
#320000000
b011 "
b011 ,
#330000000
b111 "
b111 ,
#340000000
b110 "
b110 ,
#350000000
b100 "
b100 ,
#360000000
b001 "
b001 ,
#370000000
b101 "
b101 ,
#380000000
b0100000 #
b0100000 -
#390000000
b0001111 !
b000 "
b0000000 #
0&
b0001111 +
b000 ,
b0000000 -
00
#400000000
b1110011 !
b1110011 +
#410000000
b0111110 !
b110 "
b0111110 #
b01111111111111111111110100111110 $
1&
b0111110 +
b110 ,
b0111110 -
b01111111111111111111110100111110 .
10
