rtl/sim/cpu/cpu_waveform.vcd
$date
  Sat Mar 14 07:26:57 2026
$end
$version
  GHDL v0
$end
$timescale
  1 fs
$end
$scope module standard $end
$upscope $end
$scope module textio $end
$upscope $end
$scope module std_logic_1164 $end
$upscope $end
$scope module numeric_std $end
$upscope $end
$scope module std_logic_textio $end
$upscope $end
$scope module cpu_pkg $end
$upscope $end
$scope module env $end
$upscope $end
$scope module memory_pkg $end
$upscope $end
$scope module tb_cpu $end
$var reg 1 ! clk $end
$var reg 1 " resetn $end
$var reg 1 # imem_ready $end
$var reg 1 $ imem_valid $end
$var reg 32 % imem_addr[31:0] $end
$var reg 32 & imem_rdata[31:0] $end
$var reg 1 ' imem_ready_d $end
$var reg 1 ( imem_valid_d $end
$var reg 32 ) imem_addr_d[31:0] $end
$var reg 32 * imem_rdata_d[31:0] $end
$comment regs is not handled $end
$var reg 1 + dmem_ready_d $end
$var reg 1 , dmem_valid_d $end
$var reg 32 - dmem_addr_d[31:0] $end
$var reg 32 . dmem_wdata_d[31:0] $end
$var reg 32 / dmem_rdata_d[31:0] $end
$var reg 1 0 dmem_ready $end
$var reg 1 1 dmem_valid $end
$var reg 32 2 dmem_addr[31:0] $end
$var reg 32 3 dmem_wdata[31:0] $end
$var reg 32 4 dmem_rdata[31:0] $end
$var reg 1 5 dmem_we $end
$comment dmem_access_width is not handled $end
$var integer 32 6 cycles $end
$scope module dut $end
$var reg 1 7 clk $end
$var reg 1 8 resetn $end
$var reg 1 9 imem_ready $end
$var reg 1 : imem_valid $end
$var reg 32 ; imem_addr[31:0] $end
$var reg 32 < imem_rdata[31:0] $end
$var reg 1 = dmem_ready $end
$var reg 1 > dmem_valid $end
$var reg 32 ? dmem_addr[31:0] $end
$var reg 1 @ dmem_write_enable $end
$comment dmem_access_width is not handled $end
$var reg 32 A dmem_wdata[31:0] $end
$var reg 32 B dmem_rdata[31:0] $end
$comment trace_regs is not handled $end
$var reg 32 C instruction[31:0] $end
$var reg 5 D rs1_addr[4:0] $end
$var reg 5 E rs2_addr[4:0] $end
$var reg 5 F rd_addr[4:0] $end
$var reg 32 G imm[31:0] $end
$var reg 7 H opcode[6:0] $end
$var reg 3 I funct3[2:0] $end
$var reg 7 J funct7[6:0] $end
$var reg 32 K rs1_data[31:0] $end
$var reg 32 L rs2_data[31:0] $end
$var reg 32 M rd_data[31:0] $end
$var reg 32 N op1[31:0] $end
$var reg 32 O op2[31:0] $end
$var reg 32 P alu_result[31:0] $end
$var reg 1 Q alu_use_imm $end
$var reg 1 R write_mem $end
$var reg 1 S write_rd $end
$var reg 1 T take_branch $end
$comment rd_data_src is not handled $end
$var reg 1 U jump $end
$comment aluop is not handled $end
$comment memtoreg is not handled $end
$var reg 32 V pc_imm[31:0] $end
$var reg 32 W pc_4[31:0] $end
$var reg 32 X pc[31:0] $end
$var reg 32 Y pc_next[31:0] $end
$comment pc_next_sel is not handled $end
$var reg 32 Z mem_data[31:0] $end
$var reg 1 [ mem_access $end
$comment mem_access_width is not handled $end
$var reg 1 \ enable $end
$scope module decode_00 $end
$var reg 32 ] instr[31:0] $end
$var reg 5 ^ rs1[4:0] $end
$var reg 5 _ rs2[4:0] $end
$var reg 5 ` rd[4:0] $end
$var reg 32 a imm[31:0] $end
$var reg 7 b opcode[6:0] $end
$var reg 3 c funct3[2:0] $end
$var reg 7 d funct7[6:0] $end
$var reg 32 e imm_j[31:0] $end
$var reg 32 f imm_u[31:0] $end
$var reg 32 g imm_s[31:0] $end
$var reg 32 h imm_b[31:0] $end
$var reg 32 i imm_i[31:0] $end
$var reg 7 j opcode_int[6:0] $end
$upscope $end
$scope module control_unit_00 $end
$var reg 7 k opcode[6:0] $end
$var reg 3 l funct3[2:0] $end
$var reg 7 m funct7[6:0] $end
$var reg 32 n alu_result[31:0] $end
$var reg 1 o alu_use_imm $end
$var reg 1 p write_rd $end
$var reg 1 q write_mem $end
$var reg 1 r take_branch $end
$comment rd_data_src is not handled $end
$var reg 1 s jump $end
$comment aluop is not handled $end
$comment mem_access_width is not handled $end
$var reg 1 t mem_access $end
$comment branch is not handled $end
$upscope $end
$scope module reg_file_00 $end
$var reg 1 u clk $end
$var reg 1 v resetn $end
$var reg 1 w regwrite $end
$var reg 5 x rs1_addr[4:0] $end
$var reg 5 y rs2_addr[4:0] $end
$var reg 5 z rd_addr[4:0] $end
$var reg 32 { rd_data[31:0] $end
$var reg 32 | rs1_data[31:0] $end
$var reg 32 } rs2_data[31:0] $end
$comment trace_regs is not handled $end
$comment regs is not handled $end
$upscope $end
$scope module alu_inst $end
$var reg 32 !" op1[31:0] $end
$var reg 32 "" op2[31:0] $end
$comment aluop is not handled $end
$var reg 32 #" result[31:0] $end
$upscope $end
$upscope $end
$scope module inst_mem $end
$var reg 1 $" en $end
$var reg 32 %" addr[31:0] $end
$var reg 32 &" data[31:0] $end
$comment memory is not handled $end
$var integer 32 '" word_index $end
$var reg 1 (" access_enable $end
$upscope $end
$scope module data_mem $end
$var reg 1 )" clk $end
$var reg 32 *" addr[31:0] $end
$var reg 1 +" write_enable $end
$var reg 1 ," access_enable $end
$comment access_width is not handled $end
$var reg 32 -" wdata[31:0] $end
$var reg 32 ." rdata[31:0] $end
$var reg 32 /" data_out_ram_signal[31:0] $end
$var reg 32 0" data_out_rom_signal[31:0] $end
$var reg 32 1" addr_relative[31:0] $end
$var reg 1 2" rom_access_en $end
$var reg 1 3" ram_access_en $end
$scope module data_ram $end
$var reg 1 4" clk $end
$var reg 32 5" addr[31:0] $end
$var reg 1 6" en $end
$var reg 1 7" we $end
$comment access_width is not handled $end
$var reg 32 8" di[31:0] $end
$var reg 32 9" do[31:0] $end
$comment memory is not handled $end
$var integer 32 :" word_index $end
$var integer 32 ;" halfword_index $end
$var integer 32 <" byte_index $end
$var reg 1 =" access_enable $end
$upscope $end
$scope module data_rom $end
$var reg 1 >" en $end
$var reg 32 ?" addr[31:0] $end
$comment access_width is not handled $end
$var reg 32 @" dout[31:0] $end
$comment memory is not handled $end
$var integer 32 A" word_index $end
$var integer 32 B" halfword_index $end
$var integer 32 C" byte_index $end
$var reg 1 D" access_enable $end
$upscope $end
$upscope $end
$upscope $end
$enddefinitions $end
#0
0!
0"
1#
1$
bUUUUUUUUUUUUUUUUUUUUUUUUUUUUUUUU %
b00000000000000000000000000010011 &
U'
U(
bUUUUUUUUUUUUUUUUUUUUUUUUUUUUUUUU )
bUUUUUUUUUUUUUUUUUUUUUUUUUUUUUUUU *
U+
U,
bUUUUUUUUUUUUUUUUUUUUUUUUUUUUUUUU -
bUUUUUUUUUUUUUUUUUUUUUUUUUUUUUUUU .
bUUUUUUUUUUUUUUUUUUUUUUUUUUUUUUUU /
10
01
b00000000000000000000000000000000 2
b00000000000000000000000000000000 3
b11111111111111111111111111111111 4
05
b0 6
07
08
19
1:
bUUUUUUUUUUUUUUUUUUUUUUUUUUUUUUUU ;
b00000000000000000000000000010011 <
1=
0>
b00000000000000000000000000000000 ?
0@
b00000000000000000000000000000000 A
b11111111111111111111111111111111 B
b00000000000000000000000000010011 C
b00000 D
b00000 E
b00000 F
b00000000000000000000000000000000 G
b0010011 H
b000 I
b0000000 J
b00000000000000000000000000000000 K
b00000000000000000000000000000000 L
b00000000000000000000000000000000 M
b00000000000000000000000000000000 N
b00000000000000000000000000000000 O
b00000000000000000000000000000000 P
1Q
0R
1S
0T
0U
bXXXXXXXXXXXXXXXXXXXXXXXXXXXXXXXX V
bXXXXXXXXXXXXXXXXXXXXXXXXXXXXXXXX W
bUUUUUUUUUUUUUUUUUUUUUUUUUUUUUUUU X
bXXXXXXXXXXXXXXXXXXXXXXXXXXXXXXXX Y
b11111111111111111111111111111111 Z
0[
1\
b00000000000000000000000000010011 ]
b00000 ^
b00000 _
b00000 `
b00000000000000000000000000000000 a
b0010011 b
b000 c
b0000000 d
b00000000000000000000000000000000 e
b00000000000000000000000000000000 f
b00000000000000000000000000000000 g
b00000000000000000000000000000000 h
b00000000000000000000000000000000 i
b0010011 j
b0010011 k
b000 l
b0000000 m
b00000000000000000000000000000000 n
1o
1p
0q
0r
0s
0t
0u
0v
1w
b00000 x
b00000 y
b00000 z
b00000000000000000000000000000000 {
b00000000000000000000000000000000 |
b00000000000000000000000000000000 }
b00000000000000000000000000000000 !"
b00000000000000000000000000000000 ""
b00000000000000000000000000000000 #"
1$"
bUUUUUUUUUUUUUUUUUUUUUUUUUUUUUUUU %"
b00000000000000000000000000010011 &"
b0 '"
0("
0)"
b00000000000000000000000000000000 *"
0+"
0,"
b00000000000000000000000000000000 -"
b11111111111111111111111111111111 ."
b11111111111111111111111111111111 /"
b11111111111111111111111111111111 0"
b00000000000000000000000000000000 1"
02"
03"
04"
b00000000000000000000000000000000 5"
06"
07"
b00000000000000000000000000000000 8"
b11111111111111111111111111111111 9"
b0 :"
b0 ;"
b0 <"
0="
0>"
b00000000000000000000000000000000 ?"
b11111111111111111111111111111111 @"
b0 A"
b0 B"
b0 C"
0D"
#5000000
1!
b00000000000000000000000000000000 %
b00000000000000000000000010010011 &
17
b00000000000000000000000000000000 ;
b00000000000000000000000010010011 <
b00000000000000000000000010010011 C
b00001 F
b00000000000000000000000000000000 V
b00000000000000000000000000000100 W
b00000000000000000000000000000000 X
b00000000000000000000000000000100 Y
b00000000000000000000000010010011 ]
b00001 `
b00000000000000000000000000000001 g
b00000000000000000000100000000000 h
1u
b00001 z
b00000000000000000000000000000000 %"
b00000000000000000000000010010011 &"
1("
1)"
14"
#10000000
0!
07
0u
0)"
04"
#15000000
1!
17
1u
1)"
14"
#20000000
0!
07
0u
0)"
04"
#25000000
1!
17
1u
1)"
14"
#30000000
0!
07
0u
0)"
04"
#35000000
1!
17
1u
1)"
14"
#40000000
0!
07
0u
0)"
04"
#45000000
1!
17
1u
1)"
14"
#50000000
0!
07
0u
0)"
04"
#55000000
1!
17
1u
1)"
14"
#60000000
0!
07
0u
0)"
04"
#65000000
1!
17
1u
1)"
14"
#70000000
0!
07
0u
0)"
04"
#75000000
1!
17
1u
1)"
14"
#80000000
0!
07
0u
0)"
04"
#85000000
1!
17
1u
1)"
14"
#90000000
0!
07
0u
0)"
04"
#95000000
1!
17
1u
1)"
14"
#100000000
0!
07
0u
0)"
04"
#105000000
1!
17
1u
1)"
14"
#110000000
0!
07
0u
0)"
04"
#115000000
1!
17
1u
1)"
14"
#120000000
0!
07
0u
0)"
04"
#125000000
1!
17
1u
1)"
14"
#130000000
0!
07
0u
0)"
04"
#135000000
1!
17
1u
1)"
14"
#140000000
0!
07
0u
0)"
04"
#145000000
1!
17
1u
1)"
14"
#150000000
0!
07
0u
0)"
04"
#155000000
1!
17
1u
1)"
14"
#160000000
0!
07
0u
0)"
04"
#165000000
1!
17
1u
1)"
14"
#170000000
0!
07
0u
0)"
04"
#175000000
1!
17
1u
1)"
14"
#180000000
0!
07
0u
0)"
04"
#185000000
1!
17
1u
1)"
14"
#190000000
0!
07
0u
0)"
04"
#195000000
1!
17
1u
1)"
14"
#200000000
0!
1"
07
18
0u
1v
0)"
04"
#205000000
1!
b00000000000000000000000000000100 %
b00000000000000000000000100010011 &
1'
1(
b00000000000000000000000000000000 )
b00000000000000000000000010010011 *
1+
0,
b00000000000000000000000000000000 -
b00000000000000000000000000000000 .
b11111111111111111111111111111111 /
b1 6
17
b00000000000000000000000000000100 ;
b00000000000000000000000100010011 <
b00000000000000000000000100010011 C
b00010 F
b00000000000000000000000000000100 V
b00000000000000000000000000001000 W
b00000000000000000000000000000100 X
b00000000000000000000000000001000 Y
b00000000000000000000000100010011 ]
b00010 `
b00000000000000000000000000000010 g
b00000000000000000000000000000010 h
1u
b00010 z
b00000000000000000000000000000100 %"
b00000000000000000000000100010011 &"
b1 '"
1)"
14"
#210000000
0!
07
0u
0)"
04"
#215000000
1!
b00000000000000000000000000001000 %
b00000000000000000000000110010011 &
b00000000000000000000000000000100 )
b00000000000000000000000100010011 *
b10 6
17
b00000000000000000000000000001000 ;
b00000000000000000000000110010011 <
b00000000000000000000000110010011 C
b00011 F
b00000000000000000000000000001000 V
b00000000000000000000000000001100 W
b00000000000000000000000000001000 X
b00000000000000000000000000001100 Y
b00000000000000000000000110010011 ]
b00011 `
b00000000000000000000000000000011 g
b00000000000000000000100000000010 h
1u
b00011 z
b00000000000000000000000000001000 %"
b00000000000000000000000110010011 &"
b10 '"
1)"
14"
#220000000
0!
07
0u
0)"
04"
#225000000
1!
b00000000000000000000000000001100 %
b00000000000000000000001000010011 &
b00000000000000000000000000001000 )
b00000000000000000000000110010011 *
b11 6
17
b00000000000000000000000000001100 ;
b00000000000000000000001000010011 <
b00000000000000000000001000010011 C
b00100 F
b00000000000000000000000000001100 V
b00000000000000000000000000010000 W
b00000000000000000000000000001100 X
b00000000000000000000000000010000 Y
b00000000000000000000001000010011 ]
b00100 `
b00000000000000000000000000000100 g
b00000000000000000000000000000100 h
1u
b00100 z
b00000000000000000000000000001100 %"
b00000000000000000000001000010011 &"
b11 '"
1)"
14"
#230000000
0!
07
0u
0)"
04"
#235000000
1!
b00000000000000000000000000010000 %
b00000000000000000000001010010011 &
b00000000000000000000000000001100 )
b00000000000000000000001000010011 *
b100 6
17
b00000000000000000000000000010000 ;
b00000000000000000000001010010011 <
b00000000000000000000001010010011 C
b00101 F
b00000000000000000000000000010000 V
b00000000000000000000000000010100 W
b00000000000000000000000000010000 X
b00000000000000000000000000010100 Y
b00000000000000000000001010010011 ]
b00101 `
b00000000000000000000000000000101 g
b00000000000000000000100000000100 h
1u
b00101 z
b00000000000000000000000000010000 %"
b00000000000000000000001010010011 &"
b100 '"
1)"
14"
#240000000
0!
07
0u
0)"
04"
#245000000
1!
b00000000000000000000000000010100 %
b00000000000000000000001100010011 &
b00000000000000000000000000010000 )
b00000000000000000000001010010011 *
b101 6
17
b00000000000000000000000000010100 ;
b00000000000000000000001100010011 <
b00000000000000000000001100010011 C
b00110 F
b00000000000000000000000000010100 V
b00000000000000000000000000011000 W
b00000000000000000000000000010100 X
b00000000000000000000000000011000 Y
b00000000000000000000001100010011 ]
b00110 `
b00000000000000000000000000000110 g
b00000000000000000000000000000110 h
1u
b00110 z
b00000000000000000000000000010100 %"
b00000000000000000000001100010011 &"
b101 '"
1)"
14"
#250000000
0!
07
0u
0)"
04"
#255000000
1!
b00000000000000000000000000011000 %
b00000000000000000000001110010011 &
b00000000000000000000000000010100 )
b00000000000000000000001100010011 *
b110 6
17
b00000000000000000000000000011000 ;
b00000000000000000000001110010011 <
b00000000000000000000001110010011 C
b00111 F
b00000000000000000000000000011000 V
b00000000000000000000000000011100 W
b00000000000000000000000000011000 X
b00000000000000000000000000011100 Y
b00000000000000000000001110010011 ]
b00111 `
b00000000000000000000000000000111 g
b00000000000000000000100000000110 h
1u
b00111 z
b00000000000000000000000000011000 %"
b00000000000000000000001110010011 &"
b110 '"
1)"
14"
#260000000
0!
07
0u
0)"
04"
#265000000
1!
b00000000000000000000000000011100 %
b00000000000000000000010000010011 &
b00000000000000000000000000011000 )
b00000000000000000000001110010011 *
b111 6
17
b00000000000000000000000000011100 ;
b00000000000000000000010000010011 <
b00000000000000000000010000010011 C
b01000 F
b00000000000000000000000000011100 V
b00000000000000000000000000100000 W
b00000000000000000000000000011100 X
b00000000000000000000000000100000 Y
b00000000000000000000010000010011 ]
b01000 `
b00000000000000000000000000001000 g
b00000000000000000000000000001000 h
1u
b01000 z
b00000000000000000000000000011100 %"
b00000000000000000000010000010011 &"
b111 '"
1)"
14"
#270000000
0!
07
0u
0)"
04"
#275000000
1!
b00000000000000000000000000100000 %
b00000000000000000000010010010011 &
b00000000000000000000000000011100 )
b00000000000000000000010000010011 *
b1000 6
17
b00000000000000000000000000100000 ;
b00000000000000000000010010010011 <
b00000000000000000000010010010011 C
b01001 F
b00000000000000000000000000100000 V
b00000000000000000000000000100100 W
b00000000000000000000000000100000 X
b00000000000000000000000000100100 Y
b00000000000000000000010010010011 ]
b01001 `
b00000000000000000000000000001001 g
b00000000000000000000100000001000 h
1u
b01001 z
b00000000000000000000000000100000 %"
b00000000000000000000010010010011 &"
b1000 '"
1)"
14"
#280000000
0!
07
0u
0)"
04"
#285000000
1!
b00000000000000000000000000100100 %
b00000000000000000000010100010011 &
b00000000000000000000000000100000 )
b00000000000000000000010010010011 *
b1001 6
17
b00000000000000000000000000100100 ;
b00000000000000000000010100010011 <
b00000000000000000000010100010011 C
b01010 F
b00000000000000000000000000100100 V
b00000000000000000000000000101000 W
b00000000000000000000000000100100 X
b00000000000000000000000000101000 Y
b00000000000000000000010100010011 ]
b01010 `
b00000000000000000000000000001010 g
b00000000000000000000000000001010 h
1u
b01010 z
b00000000000000000000000000100100 %"
b00000000000000000000010100010011 &"
b1001 '"
1)"
14"
#290000000
0!
07
0u
0)"
04"
#295000000
1!
b00000000000000000000000000101000 %
b00000000000000000000010110010011 &
b00000000000000000000000000100100 )
b00000000000000000000010100010011 *
b1010 6
17
b00000000000000000000000000101000 ;
b00000000000000000000010110010011 <
b00000000000000000000010110010011 C
b01011 F
b00000000000000000000000000101000 V
b00000000000000000000000000101100 W
b00000000000000000000000000101000 X
b00000000000000000000000000101100 Y
b00000000000000000000010110010011 ]
b01011 `
b00000000000000000000000000001011 g
b00000000000000000000100000001010 h
1u
b01011 z
b00000000000000000000000000101000 %"
b00000000000000000000010110010011 &"
b1010 '"
1)"
14"
#300000000
0!
07
0u
0)"
04"
#305000000
1!
b00000000000000000000000000101100 %
b00000000000000000000011000010011 &
b00000000000000000000000000101000 )
b00000000000000000000010110010011 *
b1011 6
17
b00000000000000000000000000101100 ;
b00000000000000000000011000010011 <
b00000000000000000000011000010011 C
b01100 F
b00000000000000000000000000101100 V
b00000000000000000000000000110000 W
b00000000000000000000000000101100 X
b00000000000000000000000000110000 Y
b00000000000000000000011000010011 ]
b01100 `
b00000000000000000000000000001100 g
b00000000000000000000000000001100 h
1u
b01100 z
b00000000000000000000000000101100 %"
b00000000000000000000011000010011 &"
b1011 '"
1)"
14"
#310000000
0!
07
0u
0)"
04"
#315000000
1!
b00000000000000000000000000110000 %
b00000000000000000000011010010011 &
b00000000000000000000000000101100 )
b00000000000000000000011000010011 *
b1100 6
17
b00000000000000000000000000110000 ;
b00000000000000000000011010010011 <
b00000000000000000000011010010011 C
b01101 F
b00000000000000000000000000110000 V
b00000000000000000000000000110100 W
b00000000000000000000000000110000 X
b00000000000000000000000000110100 Y
b00000000000000000000011010010011 ]
b01101 `
b00000000000000000000000000001101 g
b00000000000000000000100000001100 h
1u
b01101 z
b00000000000000000000000000110000 %"
b00000000000000000000011010010011 &"
b1100 '"
1)"
14"
#320000000
0!
07
0u
0)"
04"
#325000000
1!
b00000000000000000000000000110100 %
b00000000000000000000011100010011 &
b00000000000000000000000000110000 )
b00000000000000000000011010010011 *
b1101 6
17
b00000000000000000000000000110100 ;
b00000000000000000000011100010011 <
b00000000000000000000011100010011 C
b01110 F
b00000000000000000000000000110100 V
b00000000000000000000000000111000 W
b00000000000000000000000000110100 X
b00000000000000000000000000111000 Y
b00000000000000000000011100010011 ]
b01110 `
b00000000000000000000000000001110 g
b00000000000000000000000000001110 h
1u
b01110 z
b00000000000000000000000000110100 %"
b00000000000000000000011100010011 &"
b1101 '"
1)"
14"
#330000000
0!
07
0u
0)"
04"
#335000000
1!
b00000000000000000000000000111000 %
b00000000000000000000011110010011 &
b00000000000000000000000000110100 )
b00000000000000000000011100010011 *
b1110 6
17
b00000000000000000000000000111000 ;
b00000000000000000000011110010011 <
b00000000000000000000011110010011 C
b01111 F
b00000000000000000000000000111000 V
b00000000000000000000000000111100 W
b00000000000000000000000000111000 X
b00000000000000000000000000111100 Y
b00000000000000000000011110010011 ]
b01111 `
b00000000000000000000000000001111 g
b00000000000000000000100000001110 h
1u
b01111 z
b00000000000000000000000000111000 %"
b00000000000000000000011110010011 &"
b1110 '"
1)"
14"
#340000000
0!
07
0u
0)"
04"
#345000000
1!
b00000000000000000000000000111100 %
b00000000000000000000100000010011 &
b00000000000000000000000000111000 )
b00000000000000000000011110010011 *
b1111 6
17
b00000000000000000000000000111100 ;
b00000000000000000000100000010011 <
b00000000000000000000100000010011 C
b10000 F
b00000000000000000000000000111100 V
b00000000000000000000000001000000 W
b00000000000000000000000000111100 X
b00000000000000000000000001000000 Y
b00000000000000000000100000010011 ]
b10000 `
b00000000000000000000000000010000 g
b00000000000000000000000000010000 h
1u
b10000 z
b00000000000000000000000000111100 %"
b00000000000000000000100000010011 &"
b1111 '"
1)"
14"
#350000000
0!
07
0u
0)"
04"
#355000000
1!
b00000000000000000000000001000000 %
b00000000000000000000100010010011 &
b00000000000000000000000000111100 )
b00000000000000000000100000010011 *
b10000 6
17
b00000000000000000000000001000000 ;
b00000000000000000000100010010011 <
b00000000000000000000100010010011 C
b10001 F
b00000000000000000000000001000000 V
b00000000000000000000000001000100 W
b00000000000000000000000001000000 X
b00000000000000000000000001000100 Y
b00000000000000000000100010010011 ]
b10001 `
b00000000000000000000000000010001 g
b00000000000000000000100000010000 h
1u
b10001 z
b00000000000000000000000001000000 %"
b00000000000000000000100010010011 &"
b10000 '"
1)"
14"
#360000000
0!
07
0u
0)"
04"
#365000000
1!
b00000000000000000000000001000100 %
b00000000000000000000100100010011 &
b00000000000000000000000001000000 )
b00000000000000000000100010010011 *
b10001 6
17
b00000000000000000000000001000100 ;
b00000000000000000000100100010011 <
b00000000000000000000100100010011 C
b10010 F
b00000000000000000000000001000100 V
b00000000000000000000000001001000 W
b00000000000000000000000001000100 X
b00000000000000000000000001001000 Y
b00000000000000000000100100010011 ]
b10010 `
b00000000000000000000000000010010 g
b00000000000000000000000000010010 h
1u
b10010 z
b00000000000000000000000001000100 %"
b00000000000000000000100100010011 &"
b10001 '"
1)"
14"
#370000000
0!
07
0u
0)"
04"
#375000000
1!
b00000000000000000000000001001000 %
b00000000000000000000100110010011 &
b00000000000000000000000001000100 )
b00000000000000000000100100010011 *
b10010 6
17
b00000000000000000000000001001000 ;
b00000000000000000000100110010011 <
b00000000000000000000100110010011 C
b10011 F
b00000000000000000000000001001000 V
b00000000000000000000000001001100 W
b00000000000000000000000001001000 X
b00000000000000000000000001001100 Y
b00000000000000000000100110010011 ]
b10011 `
b00000000000000000000000000010011 g
b00000000000000000000100000010010 h
1u
b10011 z
b00000000000000000000000001001000 %"
b00000000000000000000100110010011 &"
b10010 '"
1)"
14"
#380000000
0!
07
0u
0)"
04"
#385000000
1!
b00000000000000000000000001001100 %
b00000000000000000000101000010011 &
b00000000000000000000000001001000 )
b00000000000000000000100110010011 *
b10011 6
17
b00000000000000000000000001001100 ;
b00000000000000000000101000010011 <
b00000000000000000000101000010011 C
b10100 F
b00000000000000000000000001001100 V
b00000000000000000000000001010000 W
b00000000000000000000000001001100 X
b00000000000000000000000001010000 Y
b00000000000000000000101000010011 ]
b10100 `
b00000000000000000000000000010100 g
b00000000000000000000000000010100 h
1u
b10100 z
b00000000000000000000000001001100 %"
b00000000000000000000101000010011 &"
b10011 '"
1)"
14"
#390000000
0!
07
0u
0)"
04"
#395000000
1!
b00000000000000000000000001010000 %
b00000000000000000000101010010011 &
b00000000000000000000000001001100 )
b00000000000000000000101000010011 *
b10100 6
17
b00000000000000000000000001010000 ;
b00000000000000000000101010010011 <
b00000000000000000000101010010011 C
b10101 F
b00000000000000000000000001010000 V
b00000000000000000000000001010100 W
b00000000000000000000000001010000 X
b00000000000000000000000001010100 Y
b00000000000000000000101010010011 ]
b10101 `
b00000000000000000000000000010101 g
b00000000000000000000100000010100 h
1u
b10101 z
b00000000000000000000000001010000 %"
b00000000000000000000101010010011 &"
b10100 '"
1)"
14"
#400000000
0!
07
0u
0)"
04"
#405000000
1!
b00000000000000000000000001010100 %
b00000000000000000000101100010011 &
b00000000000000000000000001010000 )
b00000000000000000000101010010011 *
b10101 6
17
b00000000000000000000000001010100 ;
b00000000000000000000101100010011 <
b00000000000000000000101100010011 C
b10110 F
b00000000000000000000000001010100 V
b00000000000000000000000001011000 W
b00000000000000000000000001010100 X
b00000000000000000000000001011000 Y
b00000000000000000000101100010011 ]
b10110 `
b00000000000000000000000000010110 g
b00000000000000000000000000010110 h
1u
b10110 z
b00000000000000000000000001010100 %"
b00000000000000000000101100010011 &"
b10101 '"
1)"
14"
#410000000
0!
07
0u
0)"
04"
#415000000
1!
b00000000000000000000000001011000 %
b00000000000000000000101110010011 &
b00000000000000000000000001010100 )
b00000000000000000000101100010011 *
b10110 6
17
b00000000000000000000000001011000 ;
b00000000000000000000101110010011 <
b00000000000000000000101110010011 C
b10111 F
b00000000000000000000000001011000 V
b00000000000000000000000001011100 W
b00000000000000000000000001011000 X
b00000000000000000000000001011100 Y
b00000000000000000000101110010011 ]
b10111 `
b00000000000000000000000000010111 g
b00000000000000000000100000010110 h
1u
b10111 z
b00000000000000000000000001011000 %"
b00000000000000000000101110010011 &"
b10110 '"
1)"
14"
#420000000
0!
07
0u
0)"
04"
#425000000
1!
b00000000000000000000000001011100 %
b00000000000000000000110000010011 &
b00000000000000000000000001011000 )
b00000000000000000000101110010011 *
b10111 6
17
b00000000000000000000000001011100 ;
b00000000000000000000110000010011 <
b00000000000000000000110000010011 C
b11000 F
b00000000000000000000000001011100 V
b00000000000000000000000001100000 W
b00000000000000000000000001011100 X
b00000000000000000000000001100000 Y
b00000000000000000000110000010011 ]
b11000 `
b00000000000000000000000000011000 g
b00000000000000000000000000011000 h
1u
b11000 z
b00000000000000000000000001011100 %"
b00000000000000000000110000010011 &"
b10111 '"
1)"
14"
#430000000
0!
07
0u
0)"
04"
#435000000
1!
b00000000000000000000000001100000 %
b00000000000000000000110010010011 &
b00000000000000000000000001011100 )
b00000000000000000000110000010011 *
b11000 6
17
b00000000000000000000000001100000 ;
b00000000000000000000110010010011 <
b00000000000000000000110010010011 C
b11001 F
b00000000000000000000000001100000 V
b00000000000000000000000001100100 W
b00000000000000000000000001100000 X
b00000000000000000000000001100100 Y
b00000000000000000000110010010011 ]
b11001 `
b00000000000000000000000000011001 g
b00000000000000000000100000011000 h
1u
b11001 z
b00000000000000000000000001100000 %"
b00000000000000000000110010010011 &"
b11000 '"
1)"
14"
#440000000
0!
07
0u
0)"
04"
#445000000
1!
b00000000000000000000000001100100 %
b00000000000000000000110100010011 &
b00000000000000000000000001100000 )
b00000000000000000000110010010011 *
b11001 6
17
b00000000000000000000000001100100 ;
b00000000000000000000110100010011 <
b00000000000000000000110100010011 C
b11010 F
b00000000000000000000000001100100 V
b00000000000000000000000001101000 W
b00000000000000000000000001100100 X
b00000000000000000000000001101000 Y
b00000000000000000000110100010011 ]
b11010 `
b00000000000000000000000000011010 g
b00000000000000000000000000011010 h
1u
b11010 z
b00000000000000000000000001100100 %"
b00000000000000000000110100010011 &"
b11001 '"
1)"
14"
#450000000
0!
07
0u
0)"
04"
#455000000
1!
b00000000000000000000000001101000 %
b00000000000000000000110110010011 &
b00000000000000000000000001100100 )
b00000000000000000000110100010011 *
b11010 6
17
b00000000000000000000000001101000 ;
b00000000000000000000110110010011 <
b00000000000000000000110110010011 C
b11011 F
b00000000000000000000000001101000 V
b00000000000000000000000001101100 W
b00000000000000000000000001101000 X
b00000000000000000000000001101100 Y
b00000000000000000000110110010011 ]
b11011 `
b00000000000000000000000000011011 g
b00000000000000000000100000011010 h
1u
b11011 z
b00000000000000000000000001101000 %"
b00000000000000000000110110010011 &"
b11010 '"
1)"
14"
#460000000
0!
07
0u
0)"
04"
#465000000
1!
b00000000000000000000000001101100 %
b00000000000000000000111000010011 &
b00000000000000000000000001101000 )
b00000000000000000000110110010011 *
b11011 6
17
b00000000000000000000000001101100 ;
b00000000000000000000111000010011 <
b00000000000000000000111000010011 C
b11100 F
b00000000000000000000000001101100 V
b00000000000000000000000001110000 W
b00000000000000000000000001101100 X
b00000000000000000000000001110000 Y
b00000000000000000000111000010011 ]
b11100 `
b00000000000000000000000000011100 g
b00000000000000000000000000011100 h
1u
b11100 z
b00000000000000000000000001101100 %"
b00000000000000000000111000010011 &"
b11011 '"
1)"
14"
#470000000
0!
07
0u
0)"
04"
#475000000
1!
b00000000000000000000000001110000 %
b00000000000000000000111010010011 &
b00000000000000000000000001101100 )
b00000000000000000000111000010011 *
b11100 6
17
b00000000000000000000000001110000 ;
b00000000000000000000111010010011 <
b00000000000000000000111010010011 C
b11101 F
b00000000000000000000000001110000 V
b00000000000000000000000001110100 W
b00000000000000000000000001110000 X
b00000000000000000000000001110100 Y
b00000000000000000000111010010011 ]
b11101 `
b00000000000000000000000000011101 g
b00000000000000000000100000011100 h
1u
b11101 z
b00000000000000000000000001110000 %"
b00000000000000000000111010010011 &"
b11100 '"
1)"
14"
#480000000
0!
07
0u
0)"
04"
#485000000
1!
b00000000000000000000000001110100 %
b00000000000000000000111100010011 &
b00000000000000000000000001110000 )
b00000000000000000000111010010011 *
b11101 6
17
b00000000000000000000000001110100 ;
b00000000000000000000111100010011 <
b00000000000000000000111100010011 C
b11110 F
b00000000000000000000000001110100 V
b00000000000000000000000001111000 W
b00000000000000000000000001110100 X
b00000000000000000000000001111000 Y
b00000000000000000000111100010011 ]
b11110 `
b00000000000000000000000000011110 g
b00000000000000000000000000011110 h
1u
b11110 z
b00000000000000000000000001110100 %"
b00000000000000000000111100010011 &"
b11101 '"
1)"
14"
#490000000
0!
07
0u
0)"
04"
